%YAML 1.1
%TAG !u! tag:unity3d.com,2011:
--- !u!114 &11400000
MonoBehaviour:
  m_ObjectHideFlags: 0
  m_CorrespondingSourceObject: {fileID: 0}
  m_PrefabInstance: {fileID: 0}
  m_PrefabAsset: {fileID: 0}
  m_GameObject: {fileID: 0}
  m_Enabled: 1
  m_EditorHideFlags: 0
  m_Script: {fileID: 11500000, guid: 6b65b97a1d4bd83408bc65bc5638701d, type: 3}
  m_Name: Set 1
  m_EditorClassIdentifier: 
  dialogueSet:
  - {fileID: 11400000, guid: be7626ce86648ab4bb9cbf04a08bd11a, type: 2}
