%YAML 1.1
%TAG !u! tag:unity3d.com,2011:
--- !u!114 &11400000
MonoBehaviour:
  m_ObjectHideFlags: 0
  m_CorrespondingSourceObject: {fileID: 0}
  m_PrefabInstance: {fileID: 0}
  m_PrefabAsset: {fileID: 0}
  m_GameObject: {fileID: 0}
  m_Enabled: 1
  m_EditorHideFlags: 0
  m_Script: {fileID: 11500000, guid: 66751946fa55bc843a84e2074ef6701d, type: 3}
  m_Name: 1
  m_EditorClassIdentifier: 
  charPortrait: {fileID: 21300000, guid: aa22766f9680b554e908fb168ca21ed3, type: 3}
  sourceName: The Mentor
  dialogue: We got a situation.
