{
    "name": "PlayerMovement",
    "maps": [
        {
            "name": "Land",
            "id": "18b8086b-1740-46ad-80e2-db340f3fa638",
            "actions": [
                {
                    "name": "Straight",
                    "type": "PassThrough",
                    "id": "085829dc-5870-4a6c-8207-866b07968b9a",
                    "expectedControlType": "Button",
                    "processors": "",
                    "interactions": ""
                },
                {
                    "name": "Sideway",
                    "type": "Button",
                    "id": "dad02386-10f2-4644-aaff-5eaba6e2b701",
                    "expectedControlType": "Button",
                    "processors": "",
                    "interactions": ""
                },
                {
                    "name": "Jump",
                    "type": "Button",
                    "id": "5933a648-b908-4b23-a968-2529e5d97ec0",
                    "expectedControlType": "Button",
                    "processors": "",
                    "interactions": ""
                },
                {
                    "name": "Dash",
                    "type": "Button",
                    "id": "5a205dca-63a4-41d2-82e6-bc1409fd8401",
                    "expectedControlType": "Button",
                    "processors": "",
                    "interactions": ""
                },
                {
                    "name": "Testing",
                    "type": "Button",
                    "id": "147d9da0-51c5-4ee2-ad71-c424143f9051",
                    "expectedControlType": "Button",
                    "processors": "",
                    "interactions": ""
                }
            ],
            "bindings": [
                {
                    "name": "Straight",
                    "id": "8619506e-2df5-4a6a-814c-bac22486fa98",
                    "path": "1DAxis",
                    "interactions": "",
                    "processors": "",
                    "groups": "",
                    "action": "Straight",
                    "isComposite": true,
                    "isPartOfComposite": false
                },
                {
                    "name": "negative",
                    "id": "8e862084-2bd4-48fe-af37-33955bd04748",
                    "path": "<Keyboard>/s",
                    "interactions": "",
                    "processors": "",
                    "groups": "",
                    "action": "Straight",
                    "isComposite": false,
                    "isPartOfComposite": true
                },
                {
                    "name": "positive",
                    "id": "64176407-469b-48ed-bdf1-4f005f16dd84",
                    "path": "<Keyboard>/w",
                    "interactions": "",
                    "processors": "",
                    "groups": "",
                    "action": "Straight",
                    "isComposite": false,
                    "isPartOfComposite": true
                },
                {
                    "name": "",
                    "id": "2f1896b4-0181-4179-8251-5850f3fc2869",
                    "path": "<Keyboard>/space",
                    "interactions": "",
                    "processors": "",
                    "groups": "",
                    "action": "Jump",
                    "isComposite": false,
                    "isPartOfComposite": false
                },
                {
                    "name": "Sideway",
                    "id": "c23bff15-b624-4924-af85-75a5288d8306",
                    "path": "1DAxis",
                    "interactions": "",
                    "processors": "",
                    "groups": "",
                    "action": "Sideway",
                    "isComposite": true,
                    "isPartOfComposite": false
                },
                {
                    "name": "negative",
                    "id": "d3e3f396-dbe7-4657-be52-a52b0767a666",
                    "path": "<Keyboard>/a",
                    "interactions": "",
                    "processors": "",
                    "groups": "",
                    "action": "Sideway",
                    "isComposite": false,
                    "isPartOfComposite": true
                },
                {
                    "name": "positive",
                    "id": "7591615e-8abb-4e54-835e-6aca44f7ef20",
                    "path": "<Keyboard>/d",
                    "interactions": "",
                    "processors": "",
                    "groups": "",
                    "action": "Sideway",
                    "isComposite": false,
                    "isPartOfComposite": true
                },
                {
                    "name": "",
                    "id": "f5a68d93-aacd-4570-a1f6-8f72729db67e",
                    "path": "<Keyboard>/p",
                    "interactions": "",
                    "processors": "",
                    "groups": "",
                    "action": "Testing",
                    "isComposite": false,
                    "isPartOfComposite": false
                },
                {
                    "name": "",
                    "id": "5709555d-3551-4c5c-9219-f95fe04b50bc",
                    "path": "<Keyboard>/shift",
                    "interactions": "",
                    "processors": "",
                    "groups": "",
                    "action": "Dash",
                    "isComposite": false,
                    "isPartOfComposite": false
                }
            ]
        }
    ],
    "controlSchemes": []
}