%YAML 1.1
%TAG !u! tag:unity3d.com,2011:
--- !u!114 &11400000
MonoBehaviour:
  m_ObjectHideFlags: 0
  m_CorrespondingSourceObject: {fileID: 0}
  m_PrefabInstance: {fileID: 0}
  m_PrefabAsset: {fileID: 0}
  m_GameObject: {fileID: 0}
  m_Enabled: 1
  m_EditorHideFlags: 0
  m_Script: {fileID: 11500000, guid: 66751946fa55bc843a84e2074ef6701d, type: 3}
  m_Name: 9
  m_EditorClassIdentifier: 
  charPortrait: {fileID: 21300000, guid: 8b18f18621b664647b398101da2bc988, type: 3}
  sourceName: Lily
  dialogue: Well, only if you guys are ok with that.
