%YAML 1.1
%TAG !u! tag:unity3d.com,2011:
--- !u!114 &11400000
MonoBehaviour:
  m_ObjectHideFlags: 0
  m_CorrespondingSourceObject: {fileID: 0}
  m_PrefabInstance: {fileID: 0}
  m_PrefabAsset: {fileID: 0}
  m_GameObject: {fileID: 0}
  m_Enabled: 1
  m_EditorHideFlags: 0
  m_Script: {fileID: 11500000, guid: 72947a0b57c6a8d4aa734548fa0e6804, type: 3}
  m_Name: '[S]ActivateGenerator'
  m_EditorClassIdentifier: 
  objID: 1
  objDescription: Activate the generator
  goal: {fileID: 11400000, guid: 4578869b73d86bd47b0dd981fc562b62, type: 2}
  chainedObjective: {fileID: 0}
