%YAML 1.1
%TAG !u! tag:unity3d.com,2011:
--- !u!114 &11400000
MonoBehaviour:
  m_ObjectHideFlags: 0
  m_CorrespondingSourceObject: {fileID: 0}
  m_PrefabInstance: {fileID: 0}
  m_PrefabAsset: {fileID: 0}
  m_GameObject: {fileID: 0}
  m_Enabled: 1
  m_EditorHideFlags: 0
  m_Script: {fileID: 11500000, guid: 72947a0b57c6a8d4aa734548fa0e6804, type: 3}
  m_Name: '[S2]Survive'
  m_EditorClassIdentifier: 
  objID: 1
  objDescription: Survive the hallways
  goal: {fileID: 11400000, guid: 4b9691d199edd034ea4ab31508343c20, type: 2}
  chainedObjective: {fileID: 11400000, guid: deb10640a8d573a4cb04791d51a43475, type: 2}
